{
  "tc001_generateRoleEntitlementReport": [
    {
      "rowID": "tc001_generateRoleEntitlementReport.01",
      "description": "Bank User generates role entitlement report",
      "entity": "report",
      "event": "create",
      "targetStatus": "Generated",
      "reportName": "Entitlement report",
      "format": "PDF",
      "rptKey": {
        "Organisation": "Persimmon2 Plc ORGID",
        "domain": "Commercial Services",
        "criteria": "Role",
        "value": "Role41custPro41"
      }
    }
  ],
  "tc002_generateUserEntitlementReport": [
    {
      "rowID": "tc002_generateUserEntitlementReport.01",
      "description": "Bank User generates user entitlement report",
      "entity": "report",
      "event": "create",
      "targetStatus": "Generated",
      "reportName": "Entitlement report",
      "format": "PDF",
      "rptKey": {
        "Organisation": "Persimmon Plc ORGID",
        "domain": "Commercial Services",
        "criteria": "User",
        "value": "James"
      }
    }
  ],
  "tc003_generateAuditReport": [
    {
      "rowID": "tc003_generateAuditReport.01",
      "description": "Bank User generates audit report for current month",
      "entity": "report",
      "event": "create",
      "targetStatus": "Generated",
      "reportName": "Audit report",
      "format": "PDF",
      "rptKey": {
        "Organisation": "Persimmon Plc ORGID",
        "domain": "Commercial Services",
        "fromDate": "12/09/2020",
        "toDate": "12/09/2021",
        "actions": [
          "User",
          "Role",
          "Rule",
          "Limits",
          "Broadcast message",
          "Service request"
        ],
        "user": "James"
      }
    }
  ],
  "tc004_generateUserListReport": [
    {
      "rowID": "tc004_generateUserListReport.01",
      "description": "Bank User generates user list report",
      "entity": "report",
      "event": "create",
      "targetStatus": "Generated",
      "reportName": "User list report",
      "format": "PDF",
      "rptKey": {
        "Organisation": "Persimmon Plc ORGID",
        "domain": "Commercial Services",
        "status": [
          "Active",
          "Closed",
          "Draft",
          "Enabled",
          "Unauthorized"
        ]
      }
    }
  ],
  "tc005_generateCustomerUserAuditReport": [
    {
      "rowID": "tc005_generateCustomerUserAuditReport.01",
      "description": "Bank User generates customer user audit report",
      "entity": "report",
      "event": "create",
      "targetStatus": "Generated",
      "reportName": "Customer user audit report",
      "format": "PDF",
      "rptKey": {
        "Organisation": "Unilever Company",
        "domain": "Unilever",
        "entity": "Unilever Company",
        "user": "Shawn Michaels",
        "fromDate": "11/03/2021",
        "toDate": "01/03/2022",
        "functions": [
        "Account services",
        "Common services",
        "Escrow",
        "Liquidity",
        "Payments",
        "Treasury",
        "Virtual account management system (VAM)"
        ],
        "transactionStatus": [
        "Approval Workflow Completed",
        "Pending Approval"
        ]
      }
    }
  ],
  "tc006_generateCustomerProfileReport": [
    {
      "rowID": "tc005_generateCustomerProfileReport.01",
      "description": "Bank User generates customer profile report",
      "entity": "report",
      "event": "create",
      "targetStatus": "Generated",
      "reportName": "Customer profile report",
      "format": "PDF",
      "rptKey": {
        "Organisation": "Persimmon Plc ORGID",
        "domain": "Commercial Services"
      }
    }
  ]
}