{
  "tc001_serviceRequestProcess": [
    {
      "rowID": "tc001_serviceRequestProcess.01",
      "description": "Bank User accepts a service request and completes the activity",
      "entity": "servicerequest",
      "event": "create",
      "acceptanceStatus": "New",
      "targetStatus": "Completed",
      "action": "accept_summary_complete_summary",
      "referenceId": "C02JF094JDSA",
      "completionNotes": "Service Request processing is completed",
      "comments": [
        "c1 - Comments 1 for service request"
      ]
    }
  ]
}